North Carolina State Climate Office
…
Tells us to remove all but one temperature variable

IfRainVar<- cardinal$IfRain
cardshort <- cardinal%>%select(-c(date,IfRain,Tprep,MinT,MaxT))
cardshort

## # A tibble: 729 x 7
##     AvgT AvgLw AvgHum AvgSm AvgSt AvgSr AvgStp
##    <dbl> <dbl>  <dbl> <dbl> <dbl> <dbl>  <dbl>
##  1  43.1  266.   63.8  0.28  48.6 135.    999.
##  2  44.9  274.   72.0  0.28  47.6  66.0  1003.
##  3  52.8  362.   92.1  0.29  51    31.1   998.
##  4  57.2  373    83.5  0.35  54.6  44.9   993.
##  5  42.1  265.   57.0  0.33  48.3 135.   1005.
##  6  44.1  265.   57.6  0.31  46.1 138.   1005.
##  7  41.4  274.   75.2  0.3   44.6  40.9  1002.
##  8  42.5  314.   58.9  0.3   43.3 136.   1010.
##  9  40.4  265.   60.2  0.3   43.3 122.   1022.
## 10  52    266.   73.5  0.29  46.1  74.6  1019.
## # ... with 719 more rows
…
